143
Parent_001.jpg	51	37	52	62
Parent_002.jpg	44	41	44	67
Parent_003.jpg	50	38	50	61
Parent_004.jpg	49	44	51	66
Parent_005.jpg	49	31	47	60
Parent_006.jpg	53	40	53	64
Parent_007.jpg	51	43	50	67
Parent_008.jpg  41  28  41  58
Parent_009.jpg	48	32	46	58
Parent_010.jpg	46	38	47	63
Parent_011.jpg	45	36	43	58
Parent_012.jpg	50	35	47	61
Parent_013.jpg	42	38	42	64
Parent_014.jpg	50	45	47	70
Parent_015.jpg	45	44	46	71
Parent_016.jpg	48	33	48	57
Parent_017.jpg	44	45	45	70
Parent_018.jpg	53	30	50	54
Parent_019.jpg	50	36	48	59
Parent_020.jpg	48	40	49	65
Parent_021.jpg	47	30	46	59
Parent_022.jpg	40	37	40	65
Parent_023.jpg	51	37	48	58
Parent_024.jpg	51	37	53	61
Parent_025.jpg	42	34	41	61
Parent_026.jpg	46	32	44	56
Parent_027.jpg	45	40	47	61
Parent_028.jpg	48	43	50	66
Parent_029.jpg	44	38	41	62
Parent_030.jpg	52	41	50	62
Parent_031.jpg	46	37	46	58
Parent_032.jpg	53	32	53	55
Parent_033.jpg	50	43	50	65
Parent_034.jpg	50	37	50	60
Parent_035.jpg	48	36	47	62
Parent_036.jpg	48	39	48	63
Parent_037.jpg	54	37	53	60
Parent_038.jpg	52	42	49	66
Parent_039.jpg	46	35	46	59
Parent_040.jpg	48	40	49	65
Parent_041.jpg	47	33	49	57
Parent_042.jpg	46	32	44	54
Parent_043.jpg	50	41	51	63
Parent_044.jpg  42  34  36  62
Parent_045.jpg	52	34	49	61
Parent_046.jpg	52	44	53	68
Parent_047.jpg	50	38	48	63
Parent_048.jpg	44	38	47	64
Parent_049.jpg	47	38	47	64
Parent_050.jpg	47	34	44	63
Parent_051.jpg	44	37	44	64
Parent_052.jpg	49	34	46	60
Parent_053.jpg	46	31	44	57
Parent_054.jpg	45	36	43	63
Parent_055.jpg	45	41	46	65
Parent_056.jpg	46	42	50	68
Parent_057.jpg	50	37	50	63
Parent_058.jpg	42	37	42	63
Parent_059.jpg	48	41	48	66
Parent_060.jpg	53	38	53	62
Parent_061.jpg	43	34	42	60
Parent_062.jpg	47	40	48	63
Parent_063.jpg	45	34	43	63
Parent_064.jpg	44	34	41	58
Parent_065.jpg	50	37	48	64
Parent_066.jpg	51	33	48	60
Parent_067.jpg	47	39	45	64
Parent_068.jpg	52	44	55	70
Parent_069.jpg	51	42	51	66
Parent_070.jpg	47	30	44	56
Parent_071.jpg	47	43	48	63
Parent_072.jpg	43	39	42	63
Parent_073.jpg	57	40	57	65
Parent_074.jpg  52  43  54  72
Parent_075.jpg	45	32	43	59
Parent_076.jpg	54	31	51	58
Parent_077.jpg	50	37	49	63
Parent_078.jpg	48	36	46	59
Parent_079.jpg	53	40	55	67
Parent_080.jpg	57	40	53	62
Parent_081.jpg	47	43	49	67
Parent_082.jpg	51	35	50	59
Parent_083.jpg	51	36	48	61
Parent_084.jpg	49	34	48	59
Parent_085.jpg	54	44	54	66
Parent_086.jpg	52	41	50	66
Parent_087.jpg	47	41	46	65
Parent_088.jpg	50	35	49	62
Parent_089.jpg	48	33	46	59
Parent_090.jpg	52	42	52	68
Parent_091.jpg	54	41	52	67
Parent_092.jpg	52	39	50	63
Parent_093.jpg	53	32	49	54
Parent_094.jpg	52	37	51	63
Parent_095.jpg	51	37	50	59
Parent_096.jpg	47	35	45	62
Parent_097.jpg	51	40	53	66
Parent_098.jpg	47	33	47	59
Parent_099.jpg	48	38	46	64
Parent_100.jpg	46	43	49	69
Parent_101.jpg	53	36	52	59
Parent_102.jpg	54	37	52	63
Parent_103.jpg	48	36	46	60
Parent_104.jpg	48	36	49	63
Parent_105.jpg	52	34	52	56
Parent_106.jpg	53	37	51	61
Parent_107.jpg	48	35	51	60
Parent_108.jpg	48	40	51	63
Parent_109.jpg	50	33	49	55
Parent_110.jpg	49	46	51	70
Parent_111.jpg  57  40  55  65
Parent_112.jpg	52	39	54	63
Parent_113.jpg	54	37	55	63
Parent_114.jpg	52	28	51	51
Parent_115.jpg	41	37	43	65
Parent_116.jpg	45	40	44	65
Parent_117.jpg	46	34	42	60
Parent_118.jpg	48	33	47	57
Parent_119.jpg	47	38	47	62
Parent_120.jpg	46	41	46	68
Parent_121.jpg	44	37	45	63
Parent_122.jpg	47	32	46	60
Parent_123.jpg	47	38	46	63
Parent_124.jpg	51	41	50	66
Parent_125.jpg	44	24	47	53
Parent_126.jpg	56	41	54	67
Parent_127.jpg	49	39	52	62
Parent_128.jpg	50	37	49	62
Parent_129.jpg	49	39	47	61
Parent_130.jpg	50	36	48	62
Parent_131.jpg	44	35	44	64
Parent_132.jpg	56	45	54	67
Parent_133.jpg	47	37	44	63
Parent_134.jpg	54	37	55	62
Parent_135.jpg	48	40	50	68
Parent_136.jpg	48	34	50	60
Parent_137.jpg	47	37	47	64
Parent_138.jpg	47	38	48	61
Parent_139.jpg	47	37	48	63
Parent_140.jpg	48	43	49	63
Parent_141.jpg	39	37	37	65
Parent_142.jpg	48	36	48	61
Parent_143.jpg	51	39	49	63
143
Child_001.jpg	53	37	51	59
Child_002.jpg	45	35	44	65
Child_003.jpg	53	35	50	58
Child_004.jpg	50	44	51	67
Child_005.jpg	48	38	49	63
Child_006.jpg	52	32	51	57
Child_007.jpg	43	29	41	59
Child_008.jpg	55	45	54	70
Child_009.jpg	47	32	46	61
Child_010.jpg	49	41	49	68
Child_011.jpg	48	38	48	64
Child_012.jpg	52	44	52	67
Child_013.jpg	42	44	44	70
Child_014.jpg	47	35	45	61
Child_015.jpg	52	36	51	58
Child_016.jpg	47	33	44	59
Child_017.jpg	51	34	49	59
Child_018.jpg	45	34	44	58
Child_019.jpg	52	27	50	52
Child_020.jpg	50	35	49	62
Child_021.jpg	49	34	48	63
Child_022.jpg	47	38	45	63
Child_023.jpg	47	42	48	63
Child_024.jpg	58	40	58	64
Child_025.jpg	58	34	59	60
Child_026.jpg	59	39	60	62
Child_027.jpg	39	42	40	65
Child_028.jpg	56	38	56	59
Child_029.jpg	56	41	56	64
Child_030.jpg	48	35	47	59
Child_031.jpg	44	39	44	61
Child_032.jpg	50	42	48	66
Child_033.jpg	55	42	53	63
Child_034.jpg	57	35	57	58
Child_035.jpg	54	38	52	61
Child_036.jpg	53	38	52	60
Child_037.jpg	52	42	53	66
Child_038.jpg	53	41	53	66
Child_039.jpg	52	35	48	62
Child_040.jpg	58	45	58	67
Child_041.jpg	46	43	47	66
Child_042.jpg	50	37	47	58
Child_043.jpg	40	38	40	63
Child_044.jpg	48	43	49	68
Child_045.jpg	56	37	54	60
Child_046.jpg	57	35	55	61
Child_047.jpg	51	36	49	62
Child_048.jpg	40	38	39	64
Child_049.jpg	42	35	43	65
Child_050.jpg	51	35	52	62
Child_051.jpg	47	32	46	60
Child_052.jpg	52	35	51	60
Child_053.jpg	49	39	50	64
Child_054.jpg	59	41	57	64
Child_055.jpg	50	31	49	56
Child_056.jpg	57	35	55	59
Child_057.jpg	52	34	48	59
Child_058.jpg	53	37	53	61
Child_059.jpg   49  41  55  69
Child_060.jpg	50	41	52	65
Child_061.jpg	46	38	46	63
Child_062.jpg	52	34	52	61
Child_063.jpg	54	32	50	57
Child_064.jpg	51	34	49	60
Child_065.jpg	56	36	55	61
Child_066.jpg	52	39	53	66
Child_067.jpg	45	40	46	64
Child_068.jpg	47	40	48	68
Child_069.jpg	48	39	49	65
Child_070.jpg	51	34	54	57
Child_071.jpg	56	44	56	63
Child_072.jpg	52	41	54	66
Child_073.jpg	55	36	55	63
Child_074.jpg	52	37	52	67
Child_075.jpg	48	34	48	59
Child_076.jpg	53	38	50	62
Child_077.jpg   51  33  47  62
Child_078.jpg	48	35	47	60
Child_079.jpg	56	36	52	59
Child_080.jpg	51	42	50	67
Child_081.jpg	46	39	47	66
Child_082.jpg	50	40	52	63
Child_083.jpg	54	34	53	57
Child_084.jpg	51	38	52	62
Child_085.jpg	47	44	45	69
Child_086.jpg	51	47	50	70
Child_087.jpg	53	41	53	65
Child_088.jpg	53	36	52	61
Child_089.jpg	52	37	54	62
Child_090.jpg	52	40	52	64
Child_091.jpg	54	36	54	59
Child_092.jpg	49	41	49	66
Child_093.jpg	53	32	51	57
Child_094.jpg	51	43	49	68
Child_095.jpg	48	42	49	67
Child_096.jpg	53	34	49	58
Child_097.jpg	49	40	48	65
Child_098.jpg	54	32	54	57
Child_099.jpg	45	35	42	63
Child_100.jpg	50	38	48	64
Child_101.jpg	49	41	48	67
Child_102.jpg	56	34	52	59
Child_103.jpg	50	38	50	64
Child_104.jpg	50	42	51	67
Child_105.jpg	52	39	55	63
Child_106.jpg	47	35	47	66
Child_107.jpg	52	41	54	63
Child_108.jpg	53	38	54	65
Child_109.jpg	58	35	58	58
Child_110.jpg	55	37	54	61
Child_111.jpg	57	36	56	59
Child_112.jpg	54	33	51	57
Child_113.jpg	57	29	54	53
Child_114.jpg	51	26	46	54
Child_115.jpg	47	38	50	68
Child_116.jpg	52	31	50	57
Child_117.jpg	47	27	49	55
Child_118.jpg	49	36	51	61
Child_119.jpg	50	36	50	60
Child_120.jpg	56	41	55	63
Child_121.jpg	50	32	50	60
Child_122.jpg	46	41	47	73
Child_123.jpg	53	36	52	62
Child_124.jpg	50	36	50	65
Child_125.jpg	50	41	49	67
Child_126.jpg	47	36	48	61
Child_127.jpg	52	44	52	70
Child_128.jpg	53	37	53	60
Child_129.jpg	54	40	53	61
Child_130.jpg	54	38	55	64
Child_131.jpg	40	37	40	67
Child_132.jpg	51	38	47	63
Child_133.jpg	43	42	47	69
Child_134.jpg	48	39	48	66
Child_135.jpg	49	37	49	63
Child_136.jpg	47	40	46	69
Child_137.jpg	47	38	47	63
Child_138.jpg	47	30	49	53
Child_139.jpg	47	33	47	59
Child_140.jpg	48	37	47	60
Child_141.jpg	53	34	51	58
Child_142.jpg	53	34	51	58
Child_143.jpg	48	36	50	61